<svg xmlns="http://www.w3.org/2000/svg" xmlns:xlink="http://www.w3.org/1999/xlink" version="1.1" viewBox="175 525.33 844.85 149.32">
<g id="surface1">
<path style=" stroke:none;fill-rule:nonzero;fill:rgb(0%,2.745056%,19.607544%);fill-opacity:1;" d="M 412.324219 642.207031 C 435.660156 642.183594 453.089844 625.386719 453.070313 602.605469 C 453.046875 579.824219 435.585938 563.0625 412.246094 563.082031 C 388.6875 563.105469 371.371094 580.015625 371.390625 602.683594 C 371.414063 625.355469 388.765625 642.230469 412.324219 642.207031 Z M 412.316406 634.871094 C 393.535156 634.890625 379.519531 621.234375 379.503906 602.675781 C 379.484375 584.117188 393.472656 570.4375 412.253906 570.417969 C 430.925781 570.398438 444.828125 584.054688 444.847656 602.613281 C 444.863281 621.171875 430.988281 634.855469 412.316406 634.871094 Z M 477.398438 594.46875 L 477.386719 583.023438 L 469.832031 583.03125 L 469.886719 641.484375 L 477.777344 641.476563 L 477.75 611.695313 C 477.734375 597.914063 485.171875 590.128906 497.398438 590.117188 C 497.953125 590.117188 498.621094 590.226563 499.285156 590.226563 L 499.277344 582.558594 C 488.5 582.570313 481.058594 586.6875 477.398438 594.46875 Z M 537.230469 641.972656 C 547.121094 641.964844 555.453125 637.957031 560.113281 630.394531 L 554.21875 626.398438 C 550.222656 632.292969 544.003906 634.96875 537.222656 634.972656 C 524.445313 634.984375 515.101563 625.992188 515.085938 612.214844 C 515.074219 598.546875 524.402344 589.421875 537.179688 589.410156 C 543.957031 589.40625 550.183594 592.175781 554.191406 598.0625 L 560.078125 594.054688 C 555.402344 586.394531 547.0625 582.511719 537.171875 582.523438 C 519.726563 582.539063 507.070313 594.773438 507.085938 612.222656 C 507.101563 629.667969 519.785156 641.992188 537.230469 641.972656 Z M 604.40625 582.457031 C 594.515625 582.464844 586.851563 586.363281 582.523438 593.144531 L 582.492188 558.917969 L 574.601563 558.925781 L 574.679688 641.382813 L 582.570313 641.375 L 582.539063 610.703125 C 582.527344 597.367188 590.410156 589.582031 602.96875 589.570313 C 614.082031 589.558594 620.53125 595.886719 620.542969 608.222656 L 620.574219 641.339844 L 628.464844 641.332031 L 628.433594 607.4375 C 628.417969 590.65625 618.628906 582.441406 604.40625 582.457031 Z M 701.113281 612.035156 C 701.097656 594.476563 689.195313 582.375 672.75 582.390625 C 656.300781 582.40625 644.199219 594.753906 644.21875 612.089844 C 644.234375 629.425781 656.691406 641.859375 674.917969 641.839844 C 684.140625 641.832031 692.25 638.492188 697.464844 632.261719 L 693.015625 627.15625 C 688.578125 632.269531 682.246094 634.832031 675.132813 634.839844 C 662.351563 634.851563 653.011719 626.75 652.109375 614.527344 L 701.003906 614.480469 C 701.003906 613.589844 701.113281 612.699219 701.113281 612.035156 Z M 672.753906 589.167969 C 684.199219 589.160156 692.542969 597.152344 693.554688 608.597656 L 652.105469 608.636719 C 653.09375 597.191406 661.421875 589.179688 672.753906 589.167969 Z M 732.925781 641.785156 C 748.148438 641.769531 757.035156 635.207031 757.023438 625.09375 C 757.003906 602.644531 719.121094 614.574219 719.105469 598.792969 C 719.097656 593.238281 723.761719 589.121094 734.320313 589.109375 C 740.320313 589.105469 746.433594 590.542969 751.546875 594.09375 L 754.988281 587.757813 C 750.09375 584.425781 741.871094 582.324219 734.3125 582.332031 C 719.421875 582.34375 711.207031 589.464844 711.214844 599.023438 C 711.238281 622.136719 749.121094 610.097656 749.132813 625.324219 C 749.140625 631.101563 744.585938 634.882813 733.472656 634.894531 C 725.25 634.902344 717.359375 632.019531 712.6875 628.359375 L 709.136719 634.585938 C 713.917969 638.691406 723.257813 641.796875 732.925781 641.785156 Z M 799.59375 631.941406 C 797.371094 633.945313 794.148438 634.949219 790.925781 634.949219 C 784.371094 634.957031 780.8125 631.183594 780.804688 624.292969 L 780.769531 589.398438 L 798.550781 589.382813 L 798.542969 582.714844 L 780.765625 582.730469 L 780.75 569.953125 L 772.863281 569.957031 L 772.875 582.738281 L 762.429688 582.75 L 762.433594 589.417969 L 772.878906 589.40625 L 772.914063 624.746094 C 772.925781 635.523438 779.042969 641.742188 790.042969 641.730469 C 794.601563 641.726563 799.265625 640.386719 802.375 637.605469 Z M 824.226563 594.136719 L 824.214844 582.6875 L 816.660156 582.695313 L 816.714844 641.148438 L 824.605469 641.140625 L 824.574219 611.359375 C 824.5625 597.578125 832 589.792969 844.226563 589.78125 C 844.78125 589.78125 845.445313 589.890625 846.113281 589.890625 L 846.105469 582.222656 C 835.328125 582.234375 827.886719 586.351563 824.226563 594.136719 Z M 880.667969 582.191406 C 871.445313 582.199219 862.777344 585.097656 856.894531 590.101563 L 860.457031 595.988281 C 865.230469 591.761719 872.339844 589.089844 879.894531 589.082031 C 890.785156 589.070313 896.457031 594.511719 896.46875 604.511719 L 896.472656 608.066406 L 877.914063 608.085938 C 861.132813 608.101563 855.363281 615.664063 855.371094 624.664063 C 855.378906 634.777344 863.5 641.660156 876.722656 641.648438 C 886.390625 641.636719 893.277344 637.964844 896.828125 631.960938 L 896.835938 641.070313 L 904.394531 641.066406 L 904.359375 604.835938 C 904.34375 589.722656 895.78125 582.175781 880.667969 582.191406 Z M 877.941406 635.421875 C 868.605469 635.429688 863.15625 631.214844 863.148438 624.433594 C 863.144531 618.433594 866.808594 613.984375 878.140625 613.976563 L 896.476563 613.957031 L 896.488281 623.515625 C 893.382813 631.183594 886.832031 635.414063 877.941406 635.421875 Z M 953.835938 631.792969 C 951.617188 633.796875 948.394531 634.800781 945.171875 634.800781 C 938.613281 634.808594 935.054688 631.035156 935.046875 624.144531 L 935.015625 589.25 L 952.796875 589.234375 L 952.789063 582.566406 L 935.007813 582.582031 L 934.996094 569.800781 L 927.105469 569.808594 L 927.117188 582.589844 L 916.671875 582.601563 L 916.679688 589.265625 L 927.125 589.257813 L 927.160156 624.597656 C 927.167969 635.375 933.289063 641.59375 944.289063 641.582031 C 948.84375 641.578125 953.511719 640.238281 956.621094 637.457031 Z M 1019.828125 611.726563 C 1019.808594 594.167969 1007.90625 582.066406 991.460938 582.082031 C 975.015625 582.097656 962.914063 594.445313 962.929688 611.78125 C 962.945313 629.117188 975.40625 641.550781 993.628906 641.535156 C 1002.851563 641.523438 1010.960938 638.183594 1016.179688 631.957031 L 1011.730469 626.847656 C 1007.289063 631.964844 1000.957031 634.527344 993.84375 634.53125 C 981.066406 634.546875 971.722656 626.441406 970.820313 614.21875 L 1019.71875 614.171875 C 1019.71875 613.28125 1019.828125 612.394531 1019.828125 611.726563 Z M 991.46875 588.863281 C 1002.914063 588.851563 1011.253906 596.84375 1012.265625 608.289063 L 970.816406 608.328125 C 971.804688 596.882813 980.132813 588.871094 991.46875 588.863281 Z M 991.46875 588.863281 "/>
<path style=" stroke:none;fill-rule:nonzero;fill:rgb(0%,2.745056%,19.607544%);fill-opacity:1;" d="M 210.675781 559.339844 C 215.101563 559.339844 218.691406 562.929688 218.691406 567.355469 C 218.691406 571.78125 215.101563 575.359375 210.675781 575.359375 C 206.257813 575.359375 202.675781 571.78125 202.675781 567.355469 C 202.675781 562.929688 206.261719 559.339844 210.675781 559.339844 Z M 210.675781 559.339844 "/>
<path style=" stroke:none;fill-rule:nonzero;fill:rgb(0%,2.745056%,19.607544%);fill-opacity:1;" d="M 244.9375 586.914063 C 242.929688 585.878906 240.460938 586.664063 239.421875 588.671875 L 237.398438 592.589844 L 225.722656 579.816406 C 225.476563 579.550781 225.203125 579.339844 224.914063 579.152344 C 223.796875 578.234375 221.945313 577.582031 219.023438 577.398438 L 215.78125 577.398438 L 215.78125 602.097656 L 205.792969 602.097656 L 205.792969 577.394531 L 186.921875 577.421875 L 195.269531 562.476563 C 196.335938 560.574219 195.824219 558.226563 194.179688 556.90625 L 210.859375 548.867188 C 211.484375 548.566406 211.746094 547.8125 211.445313 547.1875 C 211.144531 546.5625 210.394531 546.296875 209.765625 546.601563 L 189.511719 556.359375 C 189.503906 556.363281 189.503906 556.367188 189.496094 556.371094 C 188.714844 556.753906 188.035156 557.359375 187.578125 558.179688 L 175.5625 579.691406 C 174.796875 581.058594 174.816406 582.726563 175.609375 584.078125 C 176.398438 585.421875 177.84375 586.25 179.410156 586.25 C 179.410156 586.25 194.992188 586.226563 194.992188 586.226563 L 194.992188 602.097656 L 188.777344 602.097656 L 191.363281 622.878906 L 198.957031 622.878906 L 199.011719 660.121094 L 183.835938 660.121094 L 183.835938 664.125 L 236.726563 664.125 L 236.726563 660.117188 L 222.679688 660.117188 L 222.679688 622.875 L 230.109375 622.875 L 232.691406 602.09375 L 226.417969 602.09375 L 226.417969 592.707031 L 235.316406 602.441406 C 236.09375 603.296875 237.195313 603.773438 238.335938 603.773438 C 238.511719 603.773438 238.691406 603.761719 238.871094 603.738281 C 240.195313 603.5625 241.355469 602.75 241.964844 601.558594 L 246.691406 592.429688 C 247.730469 590.421875 246.945313 587.953125 244.9375 586.914063 Z M 212.695313 660.117188 L 209 660.117188 L 209 622.875 L 212.695313 622.875 Z M 229.839844 604.613281 L 227.882813 620.355469 L 193.585938 620.355469 L 191.628906 604.613281 Z M 229.839844 604.613281 "/>
<path style=" stroke:none;fill-rule:nonzero;fill:rgb(0%,2.745056%,19.607544%);fill-opacity:1;" d="M 314.75 674.644531 L 314.75 525.355469 L 316.910156 525.355469 L 316.910156 674.644531 Z M 314.75 674.644531 "/>
</g>
</svg>